…
sim_reg(fixed = fixed, fixed_param = fixed_param, random = random,
        random_param = random_param, cov_param = cov_param, k = NULL, n = n, p = p,
        error_var = error_var, with_err_gen = with_err_gen, 
        data_str = data_str, fact_vars = fact_vars)

## # A tibble: 250 x 14
##    X.Intercept.  income act_o factor.grad_deg… income1 act_o1 grad_degree_f
##           <dbl>   <dbl> <dbl>            <dbl>   <dbl>  <dbl>         <dbl>
##  1            1 -0.583      4                1 -0.583       4             2
##  2            1  0.536      6                1  0.536       6             2
##  3            1 -2.12      36                1 -2.12       36             2
##  4            1  0.572     25                0  0.572      25             1
##  5            1  0.986     14                0  0.986      14             1
##  6            1 -0.454     22                1 -0.454      22             2
##  7            1 -0.239     15                0 -0.239      15             1
##  8            1 -0.0458    22                1 -0.0458     22             2
##  9            1  0.334      6                1  0.334       6             2
## 10            1  1.91       6                0  1.91        6             1
## # … with 240 more rows, and 7 more variables: b0 <dbl>, Fbeta <dbl>,
## #   randEff <dbl>, err <dbl>, sim_data <dbl>, withinID <int>,
## #   clustID <int>
…
sim_glm(fixed = fixed, fixed_param = fixed_param, random = random,
        random_param = random_param, cov_param = cov_param, k = NULL, n = n, p = p,
        data_str = data_str, fact_vars = fact_vars, outcome_type = 'logistic')

## # A tibble: 250 x 15
##    X.Intercept. income act_o factor.grad_deg… income1 act_o1 grad_degree_f
##           <dbl>  <dbl> <dbl>            <dbl>   <dbl>  <dbl>         <dbl>
##  1            1 -0.169     3                1  -0.169      3             2
##  2            1 -1.66     17                1  -1.66      17             2
##  3            1  0.502    28                0   0.502     28             1
##  4            1  0.236     3                0   0.236      3             1
##  5            1 -0.393     6                1  -0.393      6             2
##  6            1  1.56     22                0   1.56      22             1
##  7            1 -1.03     13                1  -1.03      13             2
##  8            1 -1.64     36                1  -1.64      36             2
##  9            1  0.642    36                1   0.642     36             2
## 10            1  0.373    29                1   0.373     29             2
## # … with 240 more rows, and 8 more variables: b0 <dbl>, Fbeta <dbl>,
## #   randEff <dbl>, logistic <dbl>, prob <dbl>, sim_data <dbl>,
## #   withinID <int>, clustID <int>
…
pow_tail <- 2
replicates <- 50
terms_vary <- list(n = c(20, 40, 60, 80, 100), 
                   error_var = c(5, 10, 20))

power_out <- sim_pow(fixed = fixed, fixed_param = fixed_param, cov_param = cov_param,
                     n = n, error_var = error_var, with_err_gen = with_err_gen, 
                     data_str = "single", pow_param = pow_param, alpha = alpha,
                     pow_dist = pow_dist, pow_tail = pow_tail, 
                     replicates = replicates, terms_vary = terms_vary, 
                     raw_power = FALSE)

power_out

## # A tibble: 60 x 8
## # Groups:   var, n [20]
##    var       n error_var avg_test_stat sd_test_stat power num_reject
##    <fct> <dbl>     <dbl>         <dbl>        <dbl> <dbl>      <dbl>
##  1 (Int…    20         5         1.12         0.809  0.02          1
##  2 (Int…    20        10         1.18         0.952  0.04          2
##  3 (Int…    20        20         0.787        0.600  0             0
##  4 (Int…    40         5         1.40         1.02   0.12          6
##  5 (Int…    40        10         1.31         0.692  0.06          3
##  6 (Int…    40        20         1.06         0.691  0.04          2
##  7 (Int…    60         5         1.61         0.984  0.14          7
##  8 (Int…    60        10         1.15         0.704  0.02          1
##  9 (Int…    60        20         1.10         0.753  0.02          1
## 10 (Int…    80         5         1.84         1.01   0.2          10
## # … with 50 more rows, and 1 more variable: num_repl <dbl>
…
